{
  "summary": {
    "message": "サマリ",
    "description": ""
  },
  "tip": {
    "message": "チップ",
    "description": ""
  },
  "unverifiedCreator": {
    "message": "未認証クリエイター",
    "description": ""
  },
  "verifiedCreator": {
    "message": "認証クリエイター",
    "description": ""
  },
  "refreshStatus": {
    "message": "ステータスを更新する",
    "description": ""
  },
  "pendingTipText": {
    "message": "送ったチップはあなたのウォレット内で保留されたままになり、90 日間の間自動的に再試行されます。$link_begin$詳しく見る$link_end$",
    "description": "",
    "placeholders": {
      "link_begin": {
        "content": "$1"
      },
      "link_end": {
        "content": "$2"
      }
    }
  },
  "pendingTipTitle": {
    "message": "このクリエイターはまだ登録していません。",
    "description": ""
  },
  "pendingTipTitleRegistered": {
    "message": "このクリエイターは現在、あなたのウォレットからチップを受け取るように設定を行っていません。",
    "description": ""
  },
  "platformPublisherTitle": {
    "message": "$platform$の$name$",
    "placeholders": {
      "name": {
        "content": "$1"
      },
      "platform": {
        "content": "$2"
      }
    }
  },
  "attention": {
    "message": "アテンション",
    "description": ""
  },
  "sendTip": {
    "message": "チップを送る",
    "description": ""
  },
  "includeInAutoContribute": {
    "message": "自動支援の対象にする",
    "description": ""
  },
  "monthlyContribution": {
    "message": "毎月の支援",
    "description": ""
  },
  "ok": {
    "message": "OK",
    "description": ""
  },
  "set": {
    "message": "設定",
    "description": ""
  },
  "changeAmount": {
    "message": "金額を変更",
    "description": ""
  },
  "cancel": {
    "message": "キャンセル",
    "description": ""
  },
  "grantCaptchaTitle": {
    "message": "人間による操作であることを確認します",
    "description": ""
  },
  "grantCaptchaFailedTitle": {
    "message": "うーん、少し違います。もう一度試してみてください。",
    "description": ""
  },
  "grantCaptchaHint": {
    "message": "BATアイコンを$hint$ターゲットにドラッグします。",
    "description": "",
    "placeholders": {
      "hint": {
        "content": "$1"
      }
    }
  },
  "grantCaptchaPassedTitleUGP": {
    "message": "今日はあなたのラッキーデー!",
    "description": ""
  },
  "grantCaptchaPassedTextUGP": {
    "message": "あなたの付与トークンは送金中です。",
    "description": ""
  },
  "grantCaptchaAmountUGP": {
    "message": "無料のトークン付与",
    "description": ""
  },
  "grantCaptchaPassedTitleAds": {
    "message": "広告報酬を獲得しました! ",
    "description": ""
  },
  "grantCaptchaPassedTextAds": {
    "message": "報酬をあなたのBrave Rewardsウォレットに入金中です。",
    "description": ""
  },
  "grantCaptchaAmountAds": {
    "message": "あなたの報酬額",
    "description": ""
  },
  "grantCaptchaExpiration": {
    "message": "付与トークンの有効期限",
    "description": ""
  },
  "grantCaptchaErrorTitle": {
    "message": "おや、問題が発生しました。後でもう一度試してみて下さい。",
    "description": ""
  },
  "grantCaptchaErrorText": {
    "message": "Brave リワードに問題が発生しました。時間をおいて、もう一度試してみてください。",
    "description": ""
  },
  "walletAccountLink": {
    "message": "$provider$のアカウントに移動",
    "description": "",
    "placeholders": {
      "provider": {
        "content": "$1"
      }
    }
  },
  "walletAddFunds": {
    "message": "資金を追加する",
    "description": ""
  },
  "walletAutoContribute": {
    "message": "自動支援",
    "description": ""
  },
  "walletCompleteVerificationLink": {
    "message": "$provider$へ移動して認証を完了",
    "description": "",
    "placeholders": {
      "provider": {
        "content": "$1"
      }
    }
  },
  "walletCompleteVerificationText": {
    "message": "報酬を受け取るには、本人確認を完了する必要があります。",
    "description": ""
  },
  "walletDisconnected": {
    "message": "切断されました",
    "description": ""
  },
  "walletDisconnectLink": {
    "message": "Brave Rewardとの接続を解除する",
    "description": ""
  },
  "walletEstimatedEarnings": {
    "message": "推定報酬",
    "description": ""
  },
  "walletLogIntoYourAccount": {
    "message": "$provider$アカウントにログイン",
    "description": "",
    "placeholders": {
      "provider": {
        "content": "$1"
      }
    }
  },
  "walletMonthlyTips": {
    "message": "毎月のチップ",
    "description": ""
  },
  "walletMyWallet": {
    "message": "マイウォレット",
    "description": ""
  },
  "walletOneTimeTips": {
    "message": "一度だけチップを送る",
    "description": ""
  },
  "walletPending": {
    "message": "保留中",
    "description": ""
  },
  "walletPendingRewardsText": {
    "message": "$amount$ の支払いは $days$以降に順次開始されます ",
    "description": "",
    "placeholders": {
      "amount": {
        "content": "$1"
      },
      "days": {
        "content": "$2"
      }
    }
  },
  "walletRewardsFromAds": {
    "message": "Adsによる報酬",
    "description": ""
  },
  "walletRewardsSummary": {
    "message": "リワードのサマリ",
    "description": ""
  },
  "walletVerified": {
    "message": "認証済み",
    "description": ""
  },
  "walletVerify": {
    "message": "ウォレットを認証",
    "description": ""
  },
  "walletYourBalance": {
    "message": "残高",
    "description": ""
  },
  "notificationAddFunds": {
    "message": "資金を追加する",
    "description": ""
  },
  "notificationLearnMore": {
    "message": "詳しく知る",
    "description": ""
  },
  "notificationReconnect": {
    "message": "再接続",
    "description": ""
  },
  "notificationClaim": {
    "message": "取得",
    "description": ""
  },
  "notificationAddFundsTitle": {
    "message": "資金が不足しています",
    "description": ""
  },
  "notificationAddFundsText": {
    "message": "Brave Rewardsアカウントは入金を待っています。",
    "description": ""
  },
  "notificationAutoContributeCompletedTitle": {
    "message": "自動支援",
    "description": ""
  },
  "notificationAutoContributeCompletedText": {
    "message": "$amount$支援しました。",
    "description": "",
    "placeholders": {
      "amount": {
        "content": "$1"
      }
    }
  },
  "notificationBackupWalletTitle": {
    "message": "ウォレットのバックアップ",
    "description": ""
  },
  "notificationBackupWalletText": {
    "message": "ウォレットをバックアップしてください。",
    "description": ""
  },
  "notificationBackupWalletAction": {
    "message": "Backup now",
    "description": ""
  },
  "notificationWalletDisconnectedTitle": {
    "message": "ウォレットはログアウトしています",
    "description": ""
  },
  "notificationWalletDisconnectedText": {
    "message": "アカウントのセキュリティを保護するためこの状態になる場合があります。以下をクリックして再接続してください。",
    "description": ""
  },
  "notificationWalletDisconnectedAction": {
    "message": "再接続",
    "description": ""
  },
  "notificationWalletVerifiedTitle": {
    "message": "ウォレットの認証が完了しました！",
    "description": ""
  },
  "notificationWalletVerifiedText": {
    "message": "$provider$ウォレットの認証が無事完了し、資金の追加と引き出しの準備が整いました。",
    "description": "",
    "placeholders": {
      "provider": {
        "content": "$1"
      }
    }
  },
  "notificationTokenGrantTitle": {
    "message": "トークンの付与",
    "description": ""
  },
  "notificationTokenGrantText": {
    "message": "新しい付与トークンがあります。",
    "description": ""
  },
  "notificationAdGrantTitle": {
    "message": "Adsの報酬を受け取りました",
    "description": ""
  },
  "notificationAdGrantText": {
    "message": "Brave Private Adsによる報酬が届きました！",
    "description": ""
  },
  "notificationMonthlyContributionFailedTitle": {
    "message": "毎月の支援ができませんでした",
    "description": ""
  },
  "notificationInsufficientFundsText": {
    "message": "資金が不足しているため、予定されていた月次の自動支援の支払いと毎月の支援が完了できませんでした。30日以内に再試行します。",
    "description": ""
  },
  "notificationMonthlyContributionFailedText": {
    "message": "支援の実行中に問題が発生しました。",
    "description": ""
  },
  "notificationMonthlyTipCompletedTitle": {
    "message": "支援とチップ",
    "description": ""
  },
  "notificationMonthlyTipCompletedText": {
    "message": "毎月の定期支援が処理されました。",
    "description": ""
  },
  "notificationPublisherVerifiedTitle": {
    "message": "保留中の支援",
    "description": ""
  },
  "notificationPublisherVerifiedText": {
    "message": "クリエイター$publisher_name$が認証されました。",
    "description": "",
    "placeholders": {
      "publisher_name": {
        "content": "$1"
      }
    }
  },
  "notificationPendingTipFailedTitle": {
    "message": "資金が不足しています",
    "description": ""
  },
  "notificationPendingTipFailedText": {
    "message": "資金不足により保留されているチップがあります",
    "description": ""
  },
  "notificationWalletLinkingFailedTitle": {
    "message": "ウォレットのリンクに失敗しました",
    "description": ""
  },
  "notificationDeviceLimitReachedText": {
    "message": "認証済みのデバイスの上限に達したため、あなたのウォレットを確認できません。",
    "description": ""
  },
  "notificationMismatchedProviderAccountsText": {
    "message": "このBrave Rewardsウォレットは、すでに他の$provider$アカウントで認証済みのようです。以前のアカウントを使用してもう一度認証をお試しください。",
    "description": "",
    "placeholders": {
      "provider": {
        "content": "$1"
      }
    }
  },
  "notificationUpholdBatNotSupportedText": {
    "message": "お住まいの地域では、UpholdでBATがサポートされていません。",
    "description": ""
  },
  "notificationUpholdUserBlockedText": {
    "message": "現在、Upholdのアカウントがブロックされています。",
    "description": ""
  },
  "notificationUpholdUserPendingText": {
    "message": "Upholdのアカウントが保留中です。",
    "description": ""
  },
  "notificationUpholdUserRestrictedText": {
    "message": "現在、Upholdのアカウントが制限されています。",
    "description": ""
  },
  "onboardingEarnHeader": {
    "message": "トークンを獲得して還元する",
    "description": ""
  },
  "onboardingEarnText": {
    "message": "プライバシーを尊重する広告を表示してトークンを獲得し、お気に入りのサイトやコンテンツクリエイターを自動的にサポートします。",
    "description": ""
  },
  "onboardingSetupAdsHeader": {
    "message": "どれくらいの頻度で広告を見たいですか。",
    "description": ""
  },
  "onboardingSetupAdsSubheader": {
    "message": "(1時間当たりの広告)",
    "description": ""
  },
  "onboardingSetupContributeHeader": {
    "message": "お気に入りのクリエイターに毎月どれだけ寄付したいですか。",
    "description": ""
  },
  "onboardingSetupContributeSubheader": {
    "message": "(広告収入から)",
    "description": ""
  },
  "onboardingStartUsingRewards": {
    "message": "Brave Rewardsの使用を開始",
    "description": ""
  },
  "onboardingTakeTour": {
    "message": "クイックツアーに参加",
    "description": ""
  },
  "onboardingTerms": {
    "message": "続行することで、お客様は$tos_link_begin$利用規約$tos_link_end$および$pp_link_begin$プライバシーポリシー$pp_link_end$に同意したことになります。",
    "description": "",
    "placeholders": {
      "tos_link_begin": {
        "content": "$1"
      },
      "tos_link_end": {
        "content": "$2"
      },
      "pp_link_begin": {
        "content": "$3"
      },
      "pp_link_end": {
        "content": "$4"
      }
    }
  },
  "onboardingTourBack": {
    "message": "戻る",
    "description": ""
  },
  "onboardingTourBegin": {
    "message": "クイックツアーを見てみましょう",
    "description": ""
  },
  "onboardingTourContinue": {
    "message": "続ける",
    "description": ""
  },
  "onboardingTourDone": {
    "message": "完了",
    "description": ""
  },
  "onboardingTourSkip": {
    "message": "スキップ",
    "description": ""
  },
  "onboardingTourSkipForNow": {
    "message": "今はスキップ",
    "description": ""
  },
  "onboardingPanelWelcomeHeader": {
    "message": "Brave Rewardsへようこそ！",
    "description": ""
  },
  "onboardingPanelWelcomeText": {
    "message": "Braveプライベート広告は、従来の広告とは異なり、コンテンツクリエイターをサポートするためのトークンで報酬がもらえ、すべては個人情報を非公開にして行われます。",
    "description": ""
  },
  "onboardingPanelAdsHeader": {
    "message": "広告はどこに表示されますか？",
    "description": ""
  },
  "onboardingPanelAdsText": {
    "message": "Braveプライベート広告は通常の通知として表示されます。これらの広告をどのくらいの頻度で表示するかは設定で操作します。",
    "description": ""
  },
  "onboardingPanelScheduleHeader": {
    "message": "報酬を受け取るタイミングは？",
    "description": ""
  },
  "onboardingPanelScheduleText": {
    "message": "当月中にBraveプライベート広告から獲得したトークンは、翌月の5日に届きます。",
    "description": ""
  },
  "onboardingPanelAcHeader": {
    "message": "クリエイターへの支援がもっと簡単に",
    "description": ""
  },
  "onboardingPanelAcText": {
    "message": "クリエイターは、弊社が「アテンション」として測定するあなたのエンゲージメントレベルに基づいて、あなたからのトークンによる寄付を自動的に受け取ります。",
    "description": ""
  },
  "onboardingPanelTippingHeader": {
    "message": "チップでお礼を言おう",
    "description": ""
  },
  "onboardingPanelTippingText": {
    "message": "チッピングは、あなたが好きなコンテンツやクリエイターを個人的に応援し、サポートする方法の1つです。チッピングしよう！",
    "description": ""
  },
  "onboardingPanelRedeemHeader": {
    "message": "トークンで何ができますか？",
    "description": ""
  },
  "onboardingPanelRedeemText": {
    "message": "トークンはクリエイターをサポートする以外にも使用できます。加盟店が参加すると、デジタルコンテンツやその他の商品を購入することができます。",
    "description": ""
  },
  "onboardingPanelSetupHeader": {
    "message": "最後に、基本設定のセットアップを行いましょう",
    "description": ""
  },
  "onboardingPanelSetupText": {
    "message": "これを後で変更できます。",
    "description": ""
  },
  "onboardingPanelCompleteHeader": {
    "message": "やったー、準備完了です！",
    "description": ""
  },
  "onboardingPanelCompleteText": {
    "message": "Brave Rewardsを使用することで、ウェブを誰にとってもより良い場所にすることができます。そしてそれは素晴らしいことです！",
    "description": ""
  },
  "onboardingPanelVerifyHeader": {
    "message": "ウォレットを認証する",
    "description": ""
  },
  "onboardingPanelVerifySubtext": {
    "message": "広告を表示して獲得したトークンを引き出すには、ウォレットを認証する必要があります。",
    "description": ""
  },
  "onboardingPanelVerifyLater": {
    "message": "後で行う",
    "description": ""
  },
  "onboardingPanelVerifyNow": {
    "message": "ウォレットを認証する",
    "description": ""
  },
  "onboardingPanelBitflyerNote": {
    "message": "bitFlyerウォレットは、bitFlyer, Inc.が管理するサービスです。",
    "description": ""
  },
  "onboardingPanelBitflyerText": {
    "message": "ウォレットを認証しbitFlyerアカウントにリンクすると、Brave Rewardsで獲得したトークンを簡単に保管し管理することができます",
    "description": ""
  },
  "onboardingPanelBitflyerLearnMore": {
    "message": "BraveブラウザとbitFlyerアカウントの連携方法について$link_begin$詳しくはこちら$link_end$",
    "description": "",
    "placeholders": {
      "link_begin": {
        "content": "$1"
      },
      "link_end": {
        "content": "$2"
      }
    }
  },
  "captchaMaxAttemptsExceededText": {
    "message": "動作していないようです。Brave Adsは引き続き停止されます。Captchaに関するヘルプが必要な場合は、お問い合わせください。 ",
    "description": ""
  },
  "captchaMaxAttemptsExceededTitle": {
    "message": "最大試行回数に達しました",
    "description": ""
  },
  "captchaSolvedTitle": {
    "message": "解決しました",
    "description": ""
  },
  "captchaSolvedText": {
    "message": "広告および報酬が再開されます。Brave Rewardsおよびプライバシー重視広告の保護にご協力ありがとうございます。",
    "description": ""
  },
  "captchaContactSupport": {
    "message": "サポートにお問い合わせ",
    "description": ""
  },
  "captchaDismiss": {
    "message": "閉じる",
    "description": ""
  },
  "braveTalkTurnOnRewardsToStartCall": {
    "message": "無料通話を開始するには、Brave Rewards を有効にします",
    "description": ""
  },
  "braveTalkBraveRewardsDescription": {
    "message": "Brave Rewards を使用すると、プライバシーが保護された広告を表示してトークンを獲得できます (あなたのデータが漏洩することはありません。)。そのトークンを現金やギフトカードに変えたり、お気に入りのウェブサイトにチップを渡したりすることもできます。これによって追跡や遅延が発生することはありません。",
    "description": ""
  },
  "braveTalkTurnOnRewards": {
    "message": "「Rewards」をオンにする",
    "description": ""
  },
  "braveTalkOptInRewardsTerms": {
    "message": "クリックすることで、お客様は$tos_link_begin$利用規約$tos_link_end$および$pp_link_begin$プライバシーポリシー$pp_link_end$に同意したことになります。設定でいつでも無効にできます。",
    "description": "",
    "placeholders": {
      "tos_link_begin": {
        "content": "$1"
      },
      "tos_link_end": {
        "content": "$2"
      },
      "pp_link_begin": {
        "content": "$3"
      },
      "pp_link_end": {
        "content": "$4"
      }
    }
  },
  "braveTalkTurnOnPrivateAdsToStartCall": {
    "message": "無料通話を開始するには、Brave Private Ads を有効にします",
    "description": ""
  },
  "braveTalkPrivateAdsDescription": {
    "message": "Brave Private Ads を使用すると、プライバシーが保護された広告を表示してトークンを獲得できます (あなたのデータが漏洩することはありません)。そのトークンを現金やギフトカードに変えたり、お気に入りのウェブサイトにチップを渡したりすることもできます。これによって追跡や遅延が発生することはありません。",
    "description": ""
  },
  "braveTalkTurnOnPrivateAds": {
    "message": "Brave Private Ads を有効にする",
    "description": ""
  },
  "braveTalkOptInAdsTerms": {
    "message": "広告を有効にすることで、あなたは$tos_link_begin$利用規約$tos_link_end$および$pp_link_begin$プライバシーポリシー$pp_link_end$に同意したことになります。",
    "description": "",
    "placeholders": {
      "tos_link_begin": {
        "content": "$1"
      },
      "tos_link_end": {
        "content": "$2"
      },
      "pp_link_begin": {
        "content": "$3"
      },
      "pp_link_end": {
        "content": "$4"
      }
    }
  },
  "braveTalkCanStartFreeCall": {
    "message": "無料通話を開始できます",
    "description": ""
  },
  "braveTalkClickAnywhereToBraveTalk": {
    "message": "画面上をクリックして、Brave Talk に進みます。",
    "description": ""
  },
  "braveTalkWantLearnMore": {
    "message": "Brave Rewardsについて詳しくは、$tour_link_begin$クイックツアーにご参加ください$tour_link_end$。",
    "description": "",
    "placeholders": {
      "tour_link_begin": {
        "content": "$1"
      },
      "tour_link_end": {
        "content": "$2"
      }
    }
  }
}
